<svg width="1440" height="1123" viewBox="0 0 1440 1123" fill="none" xmlns="http://www.w3.org/2000/svg">
<g clip-path="url(#clip0)">
<path opacity="0.796642" fill-rule="evenodd" clip-rule="evenodd" d="M201.237 0L1445 1.79651V871.783C1445 982.988 1375.87 1073.99 1289.07 1077.05L0.791504 1122.56V256.686C0.791504 114.922 90.5339 0 201.237 0Z" fill="url(#paint0_linear)"/>
<mask id="mask0" mask-type="alpha" maskUnits="userSpaceOnUse" x="0" y="0" width="1446" height="1123">
<path fill-rule="evenodd" clip-rule="evenodd" d="M201.237 0L1445 1.79651V871.783C1445 982.988 1375.87 1073.99 1289.07 1077.05L0.791504 1122.56V256.686C0.791504 114.922 90.5339 0 201.237 0Z" fill="white"/>
</mask>
<g mask="url(#mask0)">
<ellipse rx="473.891" ry="488" transform="matrix(0.866025 -0.5 -0.5 -0.866025 1415.34 169.865)" fill="url(#paint1_linear)"/>
<circle cx="49.2915" cy="826.274" r="507.5" transform="rotate(-153 49.2915 826.274)" fill="url(#paint2_linear)"/>
</g>
</g>
<defs>
<linearGradient id="paint0_linear" x1="1538.27" y1="350.661" x2="267.605" y2="-135.739" gradientUnits="userSpaceOnUse">
<stop stop-color="#EAF2F0"/>
<stop offset="1" stop-color="#F8FAFD"/>
</linearGradient>
<linearGradient id="paint1_linear" x1="-282.37" y1="-5.2227" x2="555.001" y2="1031.74" gradientUnits="userSpaceOnUse">
<stop stop-color="#D5EDE5"/>
<stop offset="1" stop-color="#F8FAFD"/>
</linearGradient>
<linearGradient id="paint2_linear" x1="-760.605" y1="313.343" x2="104.509" y2="1416.56" gradientUnits="userSpaceOnUse">
<stop stop-color="#D5EDE5"/>
<stop offset="1" stop-color="#F8FAFD"/>
</linearGradient>
<clipPath id="clip0">
<rect width="1444.21" height="1122.56" fill="white" transform="translate(0.791504)"/>
</clipPath>
</defs>
</svg>
