<svg width="1440" height="111" viewBox="0 0 1440 111" fill="none" xmlns="http://www.w3.org/2000/svg">
<path fill-rule="evenodd" clip-rule="evenodd" d="M0 92.532H800.924C811.492 92.532 821.631 88.35 829.125 80.8995L898.299 12.1325C905.793 4.68198 915.932 0.5 926.5 0.5H1440V110.5H0L0 92.532Z" fill="#183B56"/>
</svg>
