<svg width="128" height="128" viewBox="0 0 128 128" fill="none" xmlns="http://www.w3.org/2000/svg">
<path fill-rule="evenodd" clip-rule="evenodd" d="M116.194 104.854C116.591 105.26 116.458 106.042 115.896 106.6C115.356 107.137 114.618 107.272 114.208 106.923L114.159 106.877L109.06 101.783C86.7352 124.098 50.6083 124.072 28.3159 101.705C6.22074 79.5351 5.99978 43.7286 27.6531 21.2862L28.0669 20.863L23.9619 16.7619C23.5646 16.356 23.6981 15.5742 24.26 15.0155C24.7995 14.4792 25.5377 14.3436 25.9474 14.6927L25.9968 14.7388L116.194 104.854Z" fill="url(#paint0_linear)"/>
<rect x="41" y="45" width="45" height="31" fill="white"/>
<circle cx="48" cy="52" r="3" fill="#183B56"/>
<path d="M82 59H68.6667C67.7462 59 67 58.2665 67 57.3617C67 56.4568 67.7462 55.7233 68.6667 55.7233H82C82.92 55.7222 83.6655 54.9893 83.6667 54.085V42.6383C83.6667 41.7335 84.4129 41 85.3333 41C86.2538 41 87 41.7335 87 42.6383V54.085C86.997 56.7983 84.7602 58.997 82 59Z" fill="#FBBD92"/>
<path d="M83.1 79H43.9C41.195 78.9969 39.003 76.7398 39 73.9545V47.0455C39.003 44.2602 41.195 42.0031 43.9 42H63.5C64.4021 42 65.1333 42.753 65.1333 43.6818C65.1333 44.6107 64.4021 45.3636 63.5 45.3636H43.9C42.9984 45.3648 42.2678 46.1171 42.2667 47.0455V73.9545C42.2678 74.8829 42.9984 75.6352 43.9 75.6364H83.1C84.0016 75.6352 84.7322 74.8829 84.7333 73.9545V62.1596C84.7333 61.2308 85.4646 60.4778 86.3667 60.4778C87.2687 60.4778 88 61.2308 88 62.1596V73.9545C87.997 76.7398 85.805 78.9969 83.1 79Z" fill="#183B56"/>
<path fill-rule="evenodd" clip-rule="evenodd" d="M54.6659 87H71.3341C71.8333 86.9997 72.3062 86.7885 72.6226 86.4244C72.939 86.0603 73.0656 85.5816 72.9676 85.1201L71.3007 77.263C71.1449 76.5289 70.4613 76.0004 69.6673 76H56.3327C55.5387 76.0004 54.8551 76.5289 54.6993 77.263L53.0324 85.1201C52.9344 85.5816 53.061 86.0603 53.3774 86.4244C53.6938 86.7885 54.1667 86.9997 54.6659 87ZM70 84H57L58.0317 79H68.9683L70 84Z" fill="#183B56"/>
<path d="M78.35 87H48.65C47.7387 87 47 86.3284 47 85.5C47 84.6716 47.7387 84 48.65 84H78.35C79.2613 84 80 84.6716 80 85.5C80 86.3284 79.2613 87 78.35 87Z" fill="#183B56"/>
<path d="M72.5 54C71.6716 54 71 53.1941 71 52.2V46.8C71 45.8059 71.6716 45 72.5 45C73.3284 45 74 45.8059 74 46.8V52.2C74 53.1941 73.3284 54 72.5 54Z" fill="#FBBD92"/>
<path d="M78.5 54C77.6716 54 77 53.2964 77 52.4286V44.5714C77 43.7036 77.6716 43 78.5 43C79.3284 43 80 43.7036 80 44.5714V52.4286C80 53.2964 79.3284 54 78.5 54Z" fill="#FBBD92"/>
<path d="M53.3333 64H46.6667C45.7462 64 45 63.3284 45 62.5C45 61.6716 45.7462 61 46.6667 61H53.3333C54.2538 61 55 61.6716 55 62.5C55 63.3284 54.2538 64 53.3333 64Z" fill="#183B56"/>
<path d="M60.3 71H46.7C45.7611 71 45 70.3284 45 69.5C45 68.6716 45.7611 68 46.7 68H60.3C61.2389 68 62 68.6716 62 69.5C62 70.3284 61.2389 71 60.3 71Z" fill="#183B56"/>
<path d="M83.5986 35.5996L69.3519 20.8338" stroke="#AEC6A4" stroke-width="4" stroke-linecap="round"/>
<path d="M71.615 34.9716L53.583 16.0019" stroke="#AEC6A4" stroke-width="4" stroke-linecap="round"/>
<path d="M59.6315 34.3436L34.9574 9.05243" stroke="#AEC6A4" stroke-width="4" stroke-linecap="round"/>
<defs>
<linearGradient id="paint0_linear" x1="-14.6342" y1="76.7567" x2="110.588" y2="129.478" gradientUnits="userSpaceOnUse">
<stop stop-color="#AEC6A4"/>
<stop offset="1" stop-color="#475B61"/>
</linearGradient>
</defs>
</svg>
